{
	"modifier_dragon_knight_dragon_form":
	{
		"name": "#modifier_dragon_knight_dragon_form",
		"modelName": "models/heroes/dragon_knight/dragon_knight_dragon.vmdl",
		"modelSkin":
		[
			0,
			1,
			2
		],
		"projectileName":
		[
			"particles/units/heroes/hero_dragon_knight/dragon_knight_elder_dragon_corrosive.vpcf",
			"particles/units/heroes/hero_dragon_knight/dragon_knight_elder_dragon_fire.vpcf",
			"particles/units/heroes/hero_dragon_knight/dragon_knight_elder_dragon_frost.vpcf"
		]
	},
	"modifier_terrorblade_metamorph":
	{
		"name": "#modifier_terrorblade_metamorph",
		"modelName": [
			"models/heroes/terrorblade/demon.vmdl",
			"models/heroes/terrorblade/demon.vmdl",
			"models/heroes/terrorblade/demon.vmdl"
		],
		"projectileName": "particles/units/heroes/hero_terrorblade/terrorblade_metamorphosis_base_attack.vpcf"
	},
	"modifier_ogre_enrage":
	{
		"name": "#modifier_ogre_enrage",
		"modelScale": 1.2
	},

	"modifier_ogre_magi_bloodlust":
	{
		"name": "#modifier_ogre_magi_bloodlust",
		"modelScale": 1.2
	},

	"modifier_slark_dark_pact_pulses":
	{
		"name": "#modifer_slark_dark_pact",
		"activityOverride": "ACT_DOTA_CAST_ABILITY_1"
	},

	"modifier_lycan_shift":
	{
		"name": "#modifier_lycan_shift",
		"modelName": "models/heroes/lycan/lycan_wolf.vmdl"
	},

	"modifier_techies_bomb_detonate":
	{
		"name": "#modifier_techies_bomb_detonate",
		"modelScale":
		[
			1.2,
			1.5,
			1.8
		]
	},

	"modifier_shadow_shaman_voodoo":
	{
		"name": "#modifier_shadow_shaman_voodoo",
		"modelName": "models/props_gameplay/chicken.vmdl"
	},

	"modifier_doom_bringer_doom":
	{
		"name": "#modifier_doom_bringer_doom",
		"soundName": "Hero_DoomBringer.Doom"
	},

	"modifier_alchemist_acid_spray":
	{
		"name": "#modifier_alchemist_acid_spray",
		"soundName": "Hero_Alchemist.AcidSpray"
	},

	"modifier_enchantress_natures_attendants":
	{
		"name": "#modifier_enchantress_natures_attendants",
		"soundName": "Hero_Enchantress.NaturesAttendantsCast"
	},

	"modifier_disruptor_static_storm_thinker":
	{
		"name": "#modifier_disruptor_static_storm_thinker",
		"soundName": "Hero_Disruptor.StaticStorm"
	},

	"modifier_juggernaut_blade_fury":
	{
		"name": "#modifier_juggernaut_blade_fury",
		"activityOverride": "ACT_DOTA_OVERRIDE_ABILITY_1",
		"soundName": "Hero_Juggernaut.BladeFuryStart"
	},
	"modifier_shaman":
	{
		"name": "#modifier_shaman"
	},

	"modifier_synergy_shaman_voodoo":
	{
		"modelName": "models/props_gameplay/frog.vmdl"
	},

	"modifier_stunned":
	{
		"activityOverride": "ACT_DOTA_DISABLED"
	},

	"assassin_modifier_bounty_hunter":
	{
		"invisible": "1"
	},

	"assassin_modifier_templar_assassin":
	{
		"invisible": "1"
	},

	"assassin_modifier_morphling":
	{
		"invisible": "1"
	},

	"assassin_modifier_sand_king":
	{
		"invisible": "1"
	},

	"modifier_summoning_stone":
	{
		"modelScale": 1.35
	},
	"modifier_shaman_hex":
	{
		"modelName": "models/props_gameplay/chicken.vmdl"
	},
	"modifier_spawn_teleport":
	{
		"invisible": "1"
	},
	"modifier_skadi":
	{
		"projectileName": "particles/items2_fx/skadi_projectile.vpcf"
	},
	"modifier_black_king_bar_immune":
	{
		"modelScale": 1.3
	},
	"modifier_crystal_maiden_death":
	{
		"invisible": "1"
	},
	"modifier_lina_death":
	{
		"invisible": "1"
	},
	"modifier_puck_phase_shift_shifted": {
		"invisible": "1"
	},

	"modifier_sheepstick_debuff":
	{
		"name": "#modifier_sheepstick_debuff",
		"modelName": "models/props_gameplay/pig.vmdl"
	}
}